[


["=", "BH_IDENTITY", "assign", false], 

["+=",  "BH_ADD",       "add", true],
["-=",  "BH_SUBTRACT",  "subtract", true],
["*=",  "BH_MULTIPLY",  "multiply", true],
["/=",  "BH_DIVIDE",    "divide", true],
["%=",  "BH_MOD",       "modulo", true],
["&=",  "BH_BITWISE_AND",   "bitwise_and", true],
["|=",  "BH_BITWISE_OR",    "bitwise_or", true],
["^=",  "BH_BITWISE_XOR",   "bitwise_xor", true],

["+", "BH_ADD",      "add", false],
["-", "BH_SUBTRACT", "subtract", false],
["*", "BH_MULTIPLY", "multiply", false], 
["/", "BH_DIVIDE",   "divide", false], 
["%", "BH_MOD",      "modulo", false],

["==",  "BH_EQUAL",          "equal_to", false], 
["!=",  "BH_NOT_EQUAL",      "not_equal_to", false], 
[">",   "BH_GREATER",        "greater_than", false], 
[">=",  "BH_GREATER_EQUAL",  "greater_than_or_equal_to", false], 
["<",   "BH_LESS",           "less_than", false],
["<=",  "BH_LESS_EQUAL",     "less_than_or_equal_to", false],

["&&",  "BH_LOGICAL_AND",    "logical_and", false], 
["||",  "BH_LOGICAL_OR",     "logical_or", false],

["&",   "BH_BITWISE_AND",    "bitwise_and", false],
["|",   "BH_BITWISE_OR",     "bitwise_or", false],
["^",   "BH_BITWISE_XOR",    "bitwise_xor", false], 

["!", "BH_LOGICAL_NOT",  "logical_not", false],
["~", "BH_INVERT",       "bitwise_invert", false],

["pow",     "BH_POWER", "power", false],
["abs",     "BH_ABSOLUTE", "absolute", false],
["max",     "BH_MAXIMUM", "maximum", false],
["min",     "BH_MINIMUM", "minimin", false],
["sin",     "BH_SIN", "sin", false],
["cos",     "BH_COS", "cos", false],
["tan",     "BH_TAN", "tan", false],
["sinh",    "BH_SINH", "sinh", false],
["cosh",    "BH_COSH", "cosh", false],
["tanh",    "BH_TANH", "tanh", false],
["asin",    "BH_ARCSIN", "asin", false],
["acos",    "BH_ARCCOS", "acos", false],
["atan",    "BH_ARCTAN", "atan", false],
["asinh",   "BH_ARCSINH", "asinh", false],
["acosh",   "BH_ARCCOSH", "acosh", false],
["atanh",   "BH_ARCTANH", "atanh", false],
["exp",     "BH_EXP", "exp", false],
["exp2",    "BH_EXP2", "exp2", false],
["expm1",   "BH_EXPM1", "expm1", false],

["log",     "BH_LOG", "log", false],
["log2",    "BH_LOG2", "log2", false],
["log10",   "BH_LOG10", "log10", false],
["log1p",   "BH_LOG1P", "log1p", false],

["sqrt",    "BH_SQRT", "sqrt", false],
["ceil",    "BH_CEIL", "ceil", false],
["trunc",   "BH_TRUNC", "trunc", false],
["floor",   "BH_FLOOR", "floor", false],
["rint",    "BH_RINT", "rint", false]

]
